{
    "User": [
        "ga:users",
        "ga:newUsers",
        "ga:percentNewSessions"
    ],

    "Session": [
        "ga:sessions",
        "ga:bounces",
        "ga:bounceRate",
        "ga:sessionDuration",
        "ga:avgSessionDuration"
    ],

    "Traffic Sources": [
        "ga:organicSearches"
    ],

    "Adwords": [
        "ga:impressions",
        "ga:adClicks",
        "ga:adCost",
        "ga:CPM",
        "ga:CPC",
        "ga:CTR",
        "ga:costPerTransaction",
        "ga:costPerGoalConversion",
        "ga:costPerConversion",
        "ga:RPC",
        "ga:ROI",
        "ga:margin"
    ],

    "Goal Conversions": [
        "ga:goal1Starts",
        "ga:goal2Starts",
        "ga:goal3Starts",
        "ga:goal4Starts",
        "ga:goal5Starts",
        "ga:goal6Starts",
        "ga:goal7Starts",
        "ga:goal8Starts",
        "ga:goal9Starts",
        "ga:goal10Starts",
        "ga:goal11Starts",
        "ga:goal12Starts",
        "ga:goal13Starts",
        "ga:goal14Starts",
        "ga:goal15Starts",
        "ga:goal16Starts",
        "ga:goal17Starts",
        "ga:goal18Starts",
        "ga:goal19Starts",
        "ga:goal20Starts",
        "ga:goalStartsAll",
        "ga:goal1Completions",
        "ga:goal2Completions",
        "ga:goal3Completions",
        "ga:goal4Completions",
        "ga:goal5Completions",
        "ga:goal6Completions",
        "ga:goal7Completions",
        "ga:goal8Completions",
        "ga:goal9Completions",
        "ga:goal10Completions",
        "ga:goal11Completions",
        "ga:goal12Completions",
        "ga:goal13Completions",
        "ga:goal14Completions",
        "ga:goal15Completions",
        "ga:goal16Completions",
        "ga:goal17Completions",
        "ga:goal18Completions",
        "ga:goal19Completions",
        "ga:goal20Completions",
        "ga:goalCompletionsAll",
        "ga:goal1Value",
        "ga:goal2Value",
        "ga:goal3Value",
        "ga:goal4Value",
        "ga:goal5Value",
        "ga:goal6Value",
        "ga:goal7Value",
        "ga:goal8Value",
        "ga:goal9Value",
        "ga:goal10Value",
        "ga:goal11Value",
        "ga:goal12Value",
        "ga:goal13Value",
        "ga:goal14Value",
        "ga:goal15Value",
        "ga:goal16Value",
        "ga:goal17Value",
        "ga:goal18Value",
        "ga:goal19Value",
        "ga:goal20Value",
        "ga:goalValueAll",
        "ga:goalValuePerSession",
        "ga:goal1ConversionRate",
        "ga:goal2ConversionRate",
        "ga:goal3ConversionRate",
        "ga:goal4ConversionRate",
        "ga:goal5ConversionRate",
        "ga:goal6ConversionRate",
        "ga:goal7ConversionRate",
        "ga:goal8ConversionRate",
        "ga:goal9ConversionRate",
        "ga:goal10ConversionRate",
        "ga:goal11ConversionRate",
        "ga:goal12ConversionRate",
        "ga:goal13ConversionRate",
        "ga:goal14ConversionRate",
        "ga:goal15ConversionRate",
        "ga:goal16ConversionRate",
        "ga:goal17ConversionRate",
        "ga:goal18ConversionRate",
        "ga:goal19ConversionRate",
        "ga:goal20ConversionRate",
        "ga:goalConversionRateAll",
        "ga:goal1Abandons",
        "ga:goal2Abandons",
        "ga:goal3Abandons",
        "ga:goal4Abandons",
        "ga:goal5Abandons",
        "ga:goal6Abandons",
        "ga:goal7Abandons",
        "ga:goal8Abandons",
        "ga:goal9Abandons",
        "ga:goal10Abandons",
        "ga:goal11Abandons",
        "ga:goal12Abandons",
        "ga:goal13Abandons",
        "ga:goal14Abandons",
        "ga:goal15Abandons",
        "ga:goal16Abandons",
        "ga:goal17Abandons",
        "ga:goal18Abandons",
        "ga:goal19Abandons",
        "ga:goal20Abandons",
        "ga:goalAbandonsAll",
        "ga:goal1AbandonRate",
        "ga:goal2AbandonRate",
        "ga:goal3AbandonRate",
        "ga:goal4AbandonRate",
        "ga:goal5AbandonRate",
        "ga:goal6AbandonRate",
        "ga:goal7AbandonRate",
        "ga:goal8AbandonRate",
        "ga:goal9AbandonRate",
        "ga:goal10AbandonRate",
        "ga:goal11AbandonRate",
        "ga:goal12AbandonRate",
        "ga:goal13AbandonRate",
        "ga:goal14AbandonRate",
        "ga:goal15AbandonRate",
        "ga:goal16AbandonRate",
        "ga:goal17AbandonRate",
        "ga:goal18AbandonRate",
        "ga:goal19AbandonRate",
        "ga:goal20AbandonRate",
        "ga:goalAbandonRateAll"

    ],

    "Social Activities": [
        "ga:socialActivities"
    ],

    "Page Tracking": [
        "ga:pageValue",
        "ga:entrances",
        "ga:entranceRate",
        "ga:pageviews",
        "ga:pageviewsPerSession",
        "ga:pageviewsPerSession",
        "ga:uniquePageviews",
        "ga:timeOnPage",
        "ga:avgTimeOnPage",
        "ga:exits",
        "ga:exitRate"
    ],

    "Internal Search": [
        "ga:searchResultViews",
        "ga:searchUniques",
        "ga:avgSearchResultViews",
        "ga:searchSessions",
        "ga:percentSessionsWithSearch",
        "ga:searchDepth",
        "ga:avgSearchDepth",
        "ga:searchRefinements",
        "ga:percentSearchRefinements",
        "ga:searchDuration",
        "ga:avgSearchDuration",
        "ga:searchExits",
        "ga:searchExitRate",
        "ga:searchGoal1ConversionRate",
        "ga:searchGoal2ConversionRate",
        "ga:searchGoal3ConversionRate",
        "ga:searchGoal4ConversionRate",
        "ga:searchGoal5ConversionRate",
        "ga:searchGoal6ConversionRate",
        "ga:searchGoal7ConversionRate",
        "ga:searchGoal8ConversionRate",
        "ga:searchGoal9ConversionRate",
        "ga:searchGoal10ConversionRate",
        "ga:searchGoal11ConversionRate",
        "ga:searchGoal12ConversionRate",
        "ga:searchGoal13ConversionRate",
        "ga:searchGoal14ConversionRate",
        "ga:searchGoal15ConversionRate",
        "ga:searchGoal16ConversionRate",
        "ga:searchGoal17ConversionRate",
        "ga:searchGoal18ConversionRate",
        "ga:searchGoal19ConversionRate",
        "ga:searchGoal20ConversionRate",
        "ga:searchGoalConversionRateAll",
        "ga:goalValueAllPerSearch"
    ],

    "Site Speed": [
        "ga:pageLoadTime",
        "ga:pageLoadSample",
        "ga:avgPageLoadTime",
        "ga:domainLookupTime",
        "ga:avgDomainLookupTime",
        "ga:pageDownloadTime",
        "ga:avgPageDownloadTime",
        "ga:redirectionTime",
        "ga:avgRedirectionTime",
        "ga:serverConnectionTime",
        "ga:avgServerConnectionTime",
        "ga:serverResponseTime",
        "ga:avgServerResponseTime",
        "ga:speedMetricsSample",
        "ga:domInteractiveTime",
        "ga:avgDomInteractiveTime",
        "ga:domContentLoadedTime",
        "ga:avgDomContentLoadedTime",
        "ga:domLatencyMetricsSample"
    ],

    "App Tracking": [
        "ga:screenviews",
        "ga:uniqueScreenviews",
        "ga:screenviewsPerSession",
        "ga:timeOnScreen",
        "ga:avgScreenviewDuration"
    ],

    "Event Tracking": [
        "ga:totalEvents",
        "ga:uniqueEvents",
        "ga:eventValue",
        "ga:avgEventValue",
        "ga:sessionsWithEvent",
        "ga:eventsPerSessionWithEvent"
    ],

    "Ecommerce": [
        "ga:transactions",
        "ga:transactionsPerSession",
        "ga:transactionRevenue",
        "ga:revenuePerTransaction",
        "ga:transactionRevenuePerSession",
        "ga:transactionShipping",
        "ga:transactionTax",
        "ga:totalValue",
        "ga:itemQuantity",
        "ga:uniquePurchases",
        "ga:revenuePerItem",
        "ga:itemRevenue",
        "ga:itemsPerPurchase",
        "ga:localTransactionRevenue",
        "ga:localTransactionShipping",
        "ga:localTransactionTax",
        "ga:localItemRevenue"
    ],

    "Social Interactions": [
        "ga:socialInteractions",
        "ga:uniqueSocialInteractions",
        "ga:socialInteractionsPerSession"
    ],

    "User Timings": [
        "ga:userTimingValue",
        "ga:userTimingSample",
        "ga:avgUserTimingValue"
    ],

    "Exceptions": [
        "ga:exceptions",
        "ga:exceptionsPerScreenview",
        "ga:fatalExceptions",
        "ga:fatalExceptionsPerScreenview"
    ],

    "Custom Variables or Columns": [
        "ga:metric1",
        "ga:metric2",
        "ga:metric3",
        "ga:metric4",
        "ga:metric5",
        "ga:metric6",
        "ga:metric7",
        "ga:metric8",
        "ga:metric9",
        "ga:metric10",
        "ga:metric11",
        "ga:metric12",
        "ga:metric13",
        "ga:metric14",
        "ga:metric15",
        "ga:metric16",
        "ga:metric17",
        "ga:metric18",
        "ga:metric19",
        "ga:metric20"
    ],

    "Other": [
        "ga:adsenseRevenue",
        "ga:adsenseAdUnitsViewed",
        "ga:adsenseAdsViewed",
        "ga:adsenseAdsClicks",
        "ga:adsensePageImpressions",
        "ga:adsenseCTR",
        "ga:adsenseECPM",
        "ga:adsenseExits"
    ]
}