<?xml version="1.0" encoding="utf-8"?>
<!-- Generator: Adobe Illustrator 18.1.1, SVG Export Plug-In . SVG Version: 6.00 Build 0)  -->
<svg version="1.1" id="shade" xmlns="http://www.w3.org/2000/svg" xmlns:xlink="http://www.w3.org/1999/xlink" x="0px" y="0px"
	 viewBox="0 0 317 317" enable-background="new 0 0 317 317" xml:space="preserve">
<circle fill="#E7433C" cx="158.7" cy="159.4" r="154.7"/>
<path fill="#C13832" d="M5,176.3c8.4,77.5,74.1,137.8,153.8,137.8c1.7,0,3.4,0,5.1-0.1l105.5-108L212,120.7L69.3,116L5,176.3z"/>
<path fill="#FFFFFF" d="M269.9,164.3l-33.5-12.2c-1.7-0.6-3-1.8-3.7-3.3l-12.5-29.6c-1-2.3-3.4-3.8-6.1-3.8L70,115.6
	c-3.6,0-7.5,2.6-7.5,5.8V201c0,3.2,3.9,5.8,7.5,5.8h7c1.8-9.6,10.2-16.8,20.3-16.8s18.5,7.2,20.3,16.8H209
	c1.7-9.7,10.1-17.1,20.3-17.1s18.7,7.4,20.3,17.1h17.8c3.6,0,6.5-2.6,6.5-5.8v-31.3C274,167.3,272.4,165.2,269.9,164.3z
	 M170.1,152.4v-26.9l38.2-0.2l11.5,27.1H170.1z"/>
<circle fill="#FFFFFF" cx="97.3" cy="210.9" r="19.3"/>
<circle fill="#B0272D" cx="97.3" cy="210.7" r="13.3"/>
<circle fill="#FFFFFF" cx="229.4" cy="210.6" r="19.3"/>
<circle fill="#C73E38" cx="229.4" cy="210.5" r="13.3"/>
<rect x="256.7" y="182.5" fill="#BA3630" width="16.7" height="9.7"/>
</svg>
